<svg width="145" height="120" viewBox="0 0 145 120" fill="none" xmlns="http://www.w3.org/2000/svg">
<path d="M69.2821 14.7656C69.2821 11.267 69.2821 7.76846 69.2821 4.26988C69.2821 1.86648 70.4937 0.501664 72.597 0.5C74.7517 0.5 75.9616 1.81155 75.9666 4.23659C75.9832 11.2271 75.9981 18.2309 75.9467 25.2281C75.9368 26.4148 76.1953 26.9191 77.4649 26.7993C78.6533 26.6861 79.8583 26.7593 81.0566 26.7726C85.5499 26.8259 89.0588 29.9217 89.5842 34.4289C89.7217 35.6206 89.9753 35.8686 91.1306 35.4009C95.212 33.7418 99.0689 31.5726 102.61 28.9447C113.165 21.1386 125.836 23.0777 133.644 33.6716C138.333 40.033 140.511 47.3647 141.747 55.0376C143.239 64.2883 143.073 73.6673 143.754 82.9813C144.161 88.5404 144.472 94.1078 144.935 99.6603C145.548 107.017 141.843 114.056 135.487 117.375C128.9 120.813 120.978 119.951 115.48 115.188C114.192 114.072 113.173 112.734 112.275 111.286C109.943 107.523 107.41 103.91 104.357 100.686C98.5377 94.5289 91.2085 91.543 82.9892 90.6209C74.576 89.6772 66.1462 89.6422 57.796 91.2867C48.9436 93.0243 42.0818 97.8927 36.8509 105.173C35.3874 107.208 33.9702 109.282 32.636 111.406C30.7625 114.38 28.0334 116.713 24.8101 118.095C21.5869 119.477 18.0216 119.844 14.5864 119.145C7.07486 117.584 1.37822 111.742 0.231266 104.594C-0.246078 101.623 0.156681 98.6999 0.370492 95.7722C1.14452 85.14 1.61026 74.4928 2.25832 63.8573C2.81854 54.8012 4.35499 45.9533 8.69087 37.831C11.0113 33.4769 14.056 29.7419 18.3173 27.1455C25.5736 22.7265 34.7161 23.2791 41.9343 28.6285C45.7464 31.4579 49.8022 33.8314 54.2408 35.5391C55.1773 35.8986 55.4938 35.8869 55.5916 34.7169C55.9977 29.8901 60.1529 26.4448 64.6794 26.7493C66.1379 26.8475 68.0987 27.272 68.9523 26.5296C69.9468 25.6658 69.2341 23.6502 69.2689 22.1389C69.3302 19.6873 69.2821 17.2256 69.2821 14.7656ZM28.6747 30.9586C24.5642 30.8355 21.198 32.6547 18.3704 35.619C13.7825 40.4174 11.787 46.4376 10.3997 52.7623C8.59474 60.9812 8.75883 69.3764 8.15386 77.7018C7.79419 82.6601 7.44116 87.62 7.25055 92.5866C7.11464 96.1268 6.32404 99.6453 6.77818 103.199C7.33839 107.6 10.9682 111.557 15.1533 112.47C20.1355 113.556 24.3919 111.864 27.0554 107.763C28.1857 106.025 29.3366 104.301 30.5078 102.591C37.2105 92.8179 46.1724 86.4899 57.9618 84.5209C67.4824 82.919 77.2007 82.9021 86.7267 84.4709C94.2847 85.7109 101.12 88.6602 106.876 93.8615C111.285 97.8461 114.82 102.563 117.83 107.651C120.592 112.321 126.326 113.733 130.785 112.163C135.781 110.406 138.694 105.642 138.298 100.409C137.733 92.9494 137.355 85.4746 136.85 78.008C136.41 71.5169 136.384 65.0107 135.565 58.5528C134.706 51.787 133.157 45.2292 129.553 39.3189C124.25 30.6191 115.018 28.3488 107.062 33.9762C100.266 38.7897 93.083 42.2549 84.7411 43.916C75.2572 45.8068 66.012 45.1543 56.8148 43.3235C50.3259 42.0336 44.4635 38.8163 39.1249 34.8084C36.0387 32.4849 32.7238 30.8488 28.6747 30.9586ZM72.718 33.5185H71.7401C69.3484 33.5185 66.9584 33.5035 64.5667 33.5185C63.1048 33.5185 62.5048 34.3257 62.3192 35.7521C62.1236 37.2501 63.0269 37.3566 64.0728 37.568C69.9103 38.7514 75.7263 38.6399 81.5505 37.4565C82.5665 37.2501 83.0124 36.9022 82.913 35.7837C82.7787 34.2541 82.1671 33.5468 80.5428 33.5285C77.9274 33.4952 75.3185 33.5168 72.7097 33.5201L72.718 33.5185Z" fill="#372294"/>
<path d="M28.6739 30.9586C32.7313 30.8471 36.0462 32.4832 39.1241 34.7951C44.4627 38.803 50.3251 42.0203 56.814 43.3102C66.0178 45.141 75.2564 45.7935 84.7403 43.9027C93.0822 42.2383 100.259 38.7763 107.061 33.9629C115.017 28.3355 124.247 30.6058 129.553 39.3056C133.156 45.2159 134.706 51.7737 135.564 58.5395C136.383 64.9974 136.41 71.5102 136.849 77.9947C137.346 85.4613 137.732 92.9361 138.297 100.396C138.693 105.629 135.78 110.392 130.784 112.15C126.326 113.72 120.591 112.308 117.83 107.638C114.82 102.55 111.284 97.8328 106.875 93.8482C101.119 88.6469 94.2789 85.6926 86.7259 84.4576C77.1998 82.8888 67.4815 82.9057 57.9609 84.5075C46.1632 86.4782 37.2014 92.8063 30.4971 102.58C29.3258 104.29 28.175 106.013 27.0446 107.751C24.3811 111.852 20.1248 113.545 15.1425 112.458C10.9591 111.546 7.32927 107.588 6.76906 103.194C6.31492 99.6403 7.10055 96.1218 7.24143 92.5816C7.43203 87.615 7.78507 82.6551 8.14474 77.6968C8.7497 69.3748 8.58562 60.9762 10.3906 52.7573C11.7779 46.4376 13.7734 40.4108 18.3612 35.619C21.1888 32.6563 24.5551 30.8371 28.6739 30.9586ZM42.9163 65.1522C44.0021 65.1955 45.0897 65.1654 46.1715 65.0623C48.3262 64.8959 49.3903 63.789 49.3588 61.7568C49.3256 59.6214 48.1986 58.4779 45.9809 58.428C44.0235 58.3814 42.0594 58.3081 40.1102 58.428C38.6716 58.5212 38.3616 57.952 38.4296 56.6521C38.5257 54.7996 38.4694 52.9404 38.4495 51.083C38.4246 48.7411 37.2777 47.4629 35.2092 47.4213C32.9882 47.3813 31.833 48.5397 31.7534 51.0164C31.6921 52.9804 31.6738 54.9494 31.7534 56.9117C31.7998 58.0418 31.4617 58.4679 30.3031 58.4263C28.2396 58.3547 26.1711 58.3647 24.1059 58.4263C21.9065 58.4879 20.8027 59.6779 20.8143 61.84C20.8242 63.9089 22.0441 65.1156 24.2286 65.1339C26.0733 65.1505 27.9197 65.1222 29.7645 65.0606C31.1882 65.0107 32.0352 65.3769 31.7948 67.0729C31.6755 67.9151 31.823 68.7939 31.7418 69.6677C31.6603 70.839 31.6559 72.0144 31.7285 73.1863C31.8064 75.102 33.0379 76.4868 34.7633 76.3353C36.6545 76.1689 38.244 75.4082 38.4196 73.128C38.5556 71.447 38.4379 69.7459 38.4445 68.0532C38.4561 65.1405 38.4594 65.1405 41.2887 65.1522H42.9163ZM72.505 68.481C69.1984 68.481 65.8901 68.481 62.5835 68.481C60.5034 68.481 59.2438 69.6727 59.2106 71.6434C59.1709 73.847 60.2399 75.1486 62.3714 75.1652C69.1172 75.2168 75.863 75.1969 82.6088 75.1752C84.0375 75.1752 85.1082 74.5178 85.6121 73.0997C86.4856 70.6414 85.0552 68.5326 82.4331 68.5026C79.1166 68.461 75.8066 68.4893 72.4967 68.4893L72.505 68.481ZM128.048 61.7501C128.055 61.0787 127.927 60.4127 127.671 59.7924C127.415 59.172 127.036 58.6102 126.558 58.1408C126.08 57.6714 125.512 57.3041 124.889 57.0611C124.265 56.8181 123.599 56.7044 122.931 56.727C120.248 56.7719 117.982 59.1104 117.997 61.82C118.012 64.5297 120.297 66.8133 122.984 66.8316C123.65 66.836 124.31 66.7076 124.926 66.4538C125.542 66.2001 126.102 65.826 126.573 65.3533C127.044 64.8806 127.417 64.3187 127.67 63.7002C127.923 63.0817 128.052 62.4188 128.048 61.7501ZM113.495 47.1034C110.582 47.0784 108.415 49.1988 108.414 52.0749C108.414 54.9044 110.512 57.0532 113.306 57.0815C116.179 57.1114 118.433 54.9177 118.433 52.0982C118.443 51.4426 118.323 50.7915 118.078 50.1832C117.834 49.575 117.472 49.0219 117.012 48.5566C116.552 48.0912 116.004 47.7229 115.4 47.4733C114.796 47.2237 114.148 47.098 113.495 47.1034ZM98.686 61.7501C98.7159 64.4847 100.98 66.7933 103.625 66.8049C106.408 66.8199 108.843 64.3566 108.763 61.6453C108.684 58.934 106.337 56.6521 103.668 56.712C101 56.7719 98.6579 59.1353 98.686 61.7501ZM118.314 71.6417C118.645 68.8588 116.159 66.5719 113.507 66.4571C112.858 66.4322 112.211 66.5368 111.603 66.765C110.995 66.9931 110.439 67.3402 109.965 67.7861C109.492 68.2321 109.112 68.7679 108.846 69.3626C108.58 69.9573 108.435 70.599 108.419 71.2506C108.317 74.0884 110.323 76.3137 113.107 76.4518C115.986 76.6 118.176 74.5744 118.314 71.6467V71.6417Z" fill="#EE67DD"/>
<path d="M72.7088 33.5185C75.3177 33.5185 77.9265 33.4952 80.5337 33.5185C82.158 33.5368 82.7695 34.2442 82.9038 35.7737C83.0032 36.8922 82.5574 37.2401 81.5414 37.4465C75.7171 38.6299 69.9011 38.7414 64.0636 37.558C63.0178 37.3466 62.1144 37.2451 62.31 35.7421C62.4957 34.3157 63.0957 33.5152 64.5575 33.5085C66.9492 33.4985 69.3393 33.5085 71.731 33.5085L72.7088 33.5185Z" fill="#51DBFA"/>
<path d="M42.908 65.1538H41.2804C38.4511 65.1422 38.4478 65.1422 38.4362 68.0549C38.4362 69.7476 38.5473 71.4486 38.4113 73.1297C38.229 75.4099 36.6462 76.1689 34.755 76.337C33.0296 76.4884 31.7981 75.1036 31.7202 73.1879C31.6476 72.0161 31.652 70.8406 31.7335 69.6694C31.8147 68.7956 31.6672 67.9167 31.7865 67.0746C32.0269 65.3785 31.1799 65.0124 29.7562 65.0623C27.9114 65.1239 26.065 65.1522 24.2203 65.1355C22.0358 65.1172 20.8159 63.9105 20.8059 61.8417C20.7943 59.6779 21.8982 58.4896 24.0976 58.428C26.1628 58.3714 28.2313 58.3614 30.2948 58.428C31.455 58.4696 31.7865 58.0435 31.7451 56.9134C31.6655 54.951 31.6838 52.982 31.7451 51.018C31.8246 48.5414 32.9799 47.383 35.2009 47.4229C37.2694 47.4612 38.4163 48.7395 38.4412 51.0846C38.4611 52.9421 38.5174 54.8012 38.4213 56.6537C38.3533 57.9536 38.6633 58.5228 40.1019 58.4296C42.0511 58.3048 44.0152 58.378 45.9726 58.4296C48.1903 58.4829 49.3173 59.6263 49.3505 61.7584C49.382 63.7907 48.3113 64.8909 46.1632 65.064C45.0814 65.1671 43.9939 65.1971 42.908 65.1538Z" fill="#372294"/>
<path d="M72.4967 68.4893C75.8115 68.4893 79.1165 68.461 82.4247 68.4976C85.0468 68.5276 86.4772 70.6364 85.6037 73.0947C85.1065 74.5128 84.0292 75.1652 82.6004 75.1702C75.8546 75.1919 69.1088 75.2118 62.3631 75.1602C60.2316 75.1436 59.1625 73.842 59.2023 71.6384C59.2355 69.676 60.4951 68.4893 62.5752 68.476C65.8818 68.476 69.1901 68.476 72.4967 68.476V68.4893Z" fill="#372294"/>
<path d="M128.048 61.7501C128.051 62.4184 127.922 63.0807 127.668 63.6985C127.415 64.3164 127.041 64.8776 126.57 65.3496C126.099 65.8216 125.539 66.195 124.924 66.4483C124.308 66.7015 123.648 66.8295 122.982 66.8249C120.296 66.7999 118.01 64.5047 117.995 61.8134C117.98 59.122 120.246 56.7652 122.929 56.7203C123.598 56.6975 124.265 56.8112 124.889 57.0545C125.513 57.2978 126.082 57.6657 126.56 58.1358C127.038 58.606 127.417 59.1687 127.673 59.7899C127.928 60.4111 128.056 61.078 128.048 61.7501Z" fill="#372294"/>
<path d="M113.495 47.1033C114.148 47.0979 114.795 47.2237 115.399 47.4731C116.003 47.7226 116.551 48.0907 117.011 48.556C117.471 49.0212 117.834 49.5741 118.078 50.1821C118.322 50.7901 118.443 51.441 118.433 52.0966C118.433 54.9177 116.179 57.1098 113.306 57.0798C110.512 57.0515 108.412 54.9028 108.414 52.0733C108.415 49.1922 110.581 47.0717 113.495 47.1033Z" fill="#372294"/>
<path d="M98.686 61.7501C98.6578 59.1304 100.982 56.7835 103.668 56.7186C106.355 56.6537 108.684 58.9473 108.763 61.6519C108.843 64.3566 106.408 66.8199 103.625 66.8116C100.98 66.7983 98.7158 64.4897 98.686 61.7501Z" fill="#372294"/>
<path d="M118.313 71.6467C118.178 74.5744 115.993 76.6 113.107 76.4568C110.323 76.3187 108.317 74.0934 108.419 71.2555C108.435 70.604 108.58 69.9623 108.846 69.3676C109.111 68.7729 109.492 68.237 109.965 67.7911C110.439 67.3452 110.995 66.9981 111.603 66.77C112.211 66.5418 112.858 66.4372 113.507 66.4621C116.159 66.5769 118.648 68.8638 118.313 71.6467Z" fill="#372294"/>
</svg>
